<?xml version="1.0" encoding="UTF-8"?>
<svg width="279px" height="272px" viewBox="0 0 279 272" version="1.1" xmlns="http://www.w3.org/2000/svg" xmlns:xlink="http://www.w3.org/1999/xlink">
    <!-- Generator: Sketch 46.2 (44496) - http://www.bohemiancoding.com/sketch -->
    <title>Group 6</title>
    <desc>Created with Sketch.</desc>
    <defs></defs>
    <g id="Page-1" stroke="none" stroke-width="1" fill="none" fill-rule="evenodd">
        <g id="Group-6" transform="translate(1.000000, 1.000000)">
            <ellipse id="Oval" stroke="#000000" fill="#000000" opacity="0.600600091" cx="138.5" cy="135" rx="138.5" ry="135"></ellipse>
            <path d="M231,186.446882 L207.269991,151 C191.23251,159.925259 165.848684,165.681079 137.278602,165.681079 C109.67957,165.681079 85.0695481,160.313964 68.9562044,151.911961 L46,186.820637 C54.557369,190.812336 134.729599,225.870513 231,186.461833 L231,186.446882 Z" id="Shape" fill-opacity="0.4" fill="#FFFFFF" fill-rule="nonzero"></path>
            <path d="M147.322835,60.7159048 L136.969816,45 L136.969816,45 L126.903543,60.5647903 L114,80.5119003 C120.655512,83.3679637 128.261811,85 136.35105,85 C144.968504,85 153.042651,83.1564035 160,79.9376653 L147.337927,60.7310162 L147.322835,60.7159048 Z" id="Shape" fill-opacity="0.4" fill="#FFFFFF" fill-rule="nonzero"></path>
            <path d="M103.34276,97.6998023 L80,133.800472 C85.1636554,136.341059 132.912281,158.202273 196,132.933326 L172.323121,97 C163.63603,101.518289 151.076198,104.347924 137.119141,104.347924 C123.906258,104.332711 111.953915,101.792124 103.34276,97.6998023 Z" id="Shape" fill="#FFFFFF" fill-rule="nonzero"></path>
        </g>
    </g>
</svg>