<?xml version="1.0" encoding="UTF-8"?>
<svg width="233px" height="63px" viewBox="0 0 233 63" version="1.1" xmlns="http://www.w3.org/2000/svg" xmlns:xlink="http://www.w3.org/1999/xlink">
    <!-- Generator: Sketch 46.2 (44496) - http://www.bohemiancoding.com/sketch -->
    <title>Group 2</title>
    <desc>Created with Sketch.</desc>
    <defs></defs>
    <g id="Page-1" stroke="none" stroke-width="1" fill="none" fill-rule="evenodd">
        <g id="Group-2">
            <rect id="Rectangle" fill="#000000" opacity="0.324275362" x="0" y="0" width="233" height="63" rx="31.5"></rect>
            <ellipse id="Oval" fill="#D0021B" opacity="0.85326087" cx="31.5" cy="32" rx="22.5" ry="23"></ellipse>
        </g>
    </g>
</svg>